beautifulsoup4==4.6.0
certifi==2018.4.16
chardet==3.0.4
Django==2.0.7
django-cors-headers==2.3.0
django-filter==1.1.0
django-oauth-toolkit==1.2.0
djangorestframework==3.8.2
idna==2.7
mysqlclient==1.3.12
oauthlib==2.1.0
Pillow==5.2.0
pyBarcode==0.7
python-barcode==0.9.0
pytz==2018.5
requests==2.19.1
six==1.11.0
urllib3==1.23
